<?xml version="1.0" encoding="utf-8"?>
<!-- Generator: Adobe Illustrator 16.2.1, SVG Export Plug-In . SVG Version: 6.00 Build 0)  -->
<!DOCTYPE svg PUBLIC "-//W3C//DTD SVG 1.1//EN" "http://www.w3.org/Graphics/SVG/1.1/DTD/svg11.dtd">
<svg version="1.1" xmlns="http://www.w3.org/2000/svg" x="0px" y="0px"
	 width="512px" height="512px" viewBox="0 0 512 512" enable-background="new 0 0 512 512">
<g>
	<circle cx="256" cy="280" r="63"/>
	<path d="M440,96h-88l-32-32H192l-32,32H72c-22.092,0-40,17.908-40,40v272c0,22.092,17.908,40,40,40h368c22.092,0,40-17.908,40-40
		V136C480,113.908,462.092,96,440,96z M256,392c-61.855,0-112-50.145-112-112s50.145-112,112-112s112,50.145,112,112
		S317.855,392,256,392z"/>
</g>
</svg>
