<?xml version="1.0" encoding="utf-8"?>
<!-- Generator: Adobe Illustrator 16.2.1, SVG Export Plug-In . SVG Version: 6.00 Build 0)  -->
<!DOCTYPE svg PUBLIC "-//W3C//DTD SVG 1.1//EN" "http://www.w3.org/Graphics/SVG/1.1/DTD/svg11.dtd">
<svg version="1.1" xmlns="http://www.w3.org/2000/svg" x="0px" y="0px"
	 width="512px" height="512px" viewBox="0 0 512 512" enable-background="new 0 0 512 512">
<g>
	<g>
		<path d="M405.333,106.667v298.666H106.667V106.667H405.333 M405.333,64H106.667C83.198,64,64,83.198,64,106.667v298.666
			C64,428.802,83.198,448,106.667,448h298.666C428.802,448,448,428.802,448,405.333V106.667C448,83.198,428.802,64,405.333,64
			L405.333,64z"/>
	</g>
</g>
</svg>
