<?xml version="1.0" encoding="utf-8"?>
<!-- Generator: Adobe Illustrator 16.2.1, SVG Export Plug-In . SVG Version: 6.00 Build 0)  -->
<!DOCTYPE svg PUBLIC "-//W3C//DTD SVG 1.1//EN" "http://www.w3.org/Graphics/SVG/1.1/DTD/svg11.dtd">
<svg version="1.1" xmlns="http://www.w3.org/2000/svg" x="0px" y="0px"
	 width="512px" height="512px" viewBox="0 0 512 512" enable-background="new 0 0 512 512">
<path d="M256,464c22.779,0,41.411-18.719,41.411-41.6h-82.823C214.588,445.281,233.221,464,256,464z M390.589,339.2V224.8
	c0-63.44-44.516-117.518-103.53-131.041V79.2c0-17.682-13.457-31.2-31.059-31.2s-31.059,13.518-31.059,31.2v14.559
	c-59.015,13.523-103.53,67.601-103.53,131.041v114.4L80,380.8v20.8h352v-20.8L390.589,339.2z"/>
</svg>
