<?xml version="1.0" encoding="utf-8"?>
<!-- Generator: Adobe Illustrator 16.2.1, SVG Export Plug-In . SVG Version: 6.00 Build 0)  -->
<!DOCTYPE svg PUBLIC "-//W3C//DTD SVG 1.1//EN" "http://www.w3.org/Graphics/SVG/1.1/DTD/svg11.dtd">
<svg version="1.1" xmlns="http://www.w3.org/2000/svg" x="0px" y="0px"
	 width="512px" height="512px" viewBox="0 0 512 512" enable-background="new 0 0 512 512">
<g>
	<g>
		<path d="M256,152c-57.2,0-104,46.8-104,104s46.8,104,104,104s104-46.8,104-104S313.2,152,256,152z M256,48
			C141.601,48,48,141.601,48,256s93.601,208,208,208s208-93.601,208-208S370.399,48,256,48z M256,422.4
			c-91.518,0-166.4-74.883-166.4-166.4S164.482,89.6,256,89.6S422.4,164.482,422.4,256S347.518,422.4,256,422.4z"/>
	</g>
</g>
</svg>
