<?xml version="1.0" encoding="utf-8"?>
<!-- Generator: Adobe Illustrator 16.2.1, SVG Export Plug-In . SVG Version: 6.00 Build 0)  -->
<!DOCTYPE svg PUBLIC "-//W3C//DTD SVG 1.1//EN" "http://www.w3.org/Graphics/SVG/1.1/DTD/svg11.dtd">
<svg version="1.1" xmlns="http://www.w3.org/2000/svg" x="0px" y="0px"
	 width="512px" height="512px" viewBox="0 0 512 512" enable-background="new 0 0 512 512">
<g>
	<g>
		<path fill="#010101" d="M64,368v80h80l235.727-235.729l-79.999-79.998L64,368z M441.602,150.398
			c8.531-8.531,8.531-21.334,0-29.865l-50.135-50.135c-8.531-8.531-21.334-8.531-29.865,0l-39.468,39.469l79.999,79.998
			L441.602,150.398z"/>
	</g>
</g>
</svg>
