<?xml version="1.0" encoding="utf-8"?>
<!-- Generator: Adobe Illustrator 16.2.1, SVG Export Plug-In . SVG Version: 6.00 Build 0)  -->
<!DOCTYPE svg PUBLIC "-//W3C//DTD SVG 1.1//EN" "http://www.w3.org/Graphics/SVG/1.1/DTD/svg11.dtd">
<svg version="1.1" xmlns="http://www.w3.org/2000/svg" x="0px" y="0px"
	 width="512px" height="512px" viewBox="0 0 512 512" enable-background="new 0 0 512 512">
<g>
	<g>
		<path d="M448,248L288,96v85.334C138.666,202.667,85.333,309.334,64,416c53.333-74.666,117.333-108.802,224-108.802v87.469L448,248
			z"/>
	</g>
</g>
</svg>
