<?xml version="1.0" encoding="utf-8"?>
<!-- Generator: Adobe Illustrator 16.2.1, SVG Export Plug-In . SVG Version: 6.00 Build 0)  -->
<!DOCTYPE svg PUBLIC "-//W3C//DTD SVG 1.1//EN" "http://www.w3.org/Graphics/SVG/1.1/DTD/svg11.dtd">
<svg version="1.1" xmlns="http://www.w3.org/2000/svg" x="0px" y="0px"
	 width="512px" height="512px" viewBox="0 0 512 512" enable-background="new 0 0 512 512">
<g>
	<g>
		<path d="M239.208,343.937c-17.78,10.103-38.342,15.876-60.255,15.876c-21.909,0-42.467-5.771-60.246-15.87
			C71.544,358.331,42.643,406,32,448h293.912C315.273,406,286.375,358.317,239.208,343.937z"/>
		<g>
			<path d="M178.953,120.035c-58.479,0-105.886,47.394-105.886,105.858c0,58.464,47.407,105.857,105.886,105.857
				c58.479,0,105.886-47.394,105.886-105.857C284.839,167.429,237.431,120.035,178.953,120.035z M178.953,306.523
				c-33.671,0-62.445-22.513-73.997-50.523H252.95C241.396,284.011,212.624,306.523,178.953,306.523z"/>
		</g>
	</g>
	<g>
		<g>
			<path d="M322.602,384H480c-10.638-42-39.537-81.691-86.703-96.072c-17.781,10.104-38.343,15.873-60.256,15.873
				c-14.823,0-29.024-2.654-42.168-7.49c-7.445,12.47-16.927,25.592-27.974,34.906C289.245,341.354,309.146,364,322.602,384z"/>
		</g>
		<path d="M306.545,200h100.493c-11.554,28-40.327,50.293-73.997,50.293c-8.875,0-17.404-1.692-25.375-4.51
			c-1.338,8.709-3.543,17.07-6.52,25.118c10.066,3.174,20.779,4.862,31.895,4.862c58.479,0,105.886-47.41,105.886-105.872
			c0-58.465-47.407-105.866-105.886-105.866c-37.49,0-70.427,19.703-89.243,49.09C275.607,131.383,298.961,163,306.545,200z"/>
	</g>
</g>
</svg>
