<?xml version="1.0" encoding="utf-8"?>
<!-- Generator: Adobe Illustrator 16.2.1, SVG Export Plug-In . SVG Version: 6.00 Build 0)  -->
<!DOCTYPE svg PUBLIC "-//W3C//DTD SVG 1.1//EN" "http://www.w3.org/Graphics/SVG/1.1/DTD/svg11.dtd">
<svg version="1.1" xmlns="http://www.w3.org/2000/svg" x="0px" y="0px"
	 width="512px" height="512px" viewBox="0 0 512 512" enable-background="new 0 0 512 512">
<path d="M437.334,144H256.006l-42.668-48H74.666C51.197,96,32,115.198,32,138.667v234.666C32,396.802,51.197,416,74.666,416h362.668
	C460.803,416,480,396.802,480,373.333V186.667C480,163.198,460.803,144,437.334,144z M448,373.333
	c0,5.782-4.885,10.667-10.666,10.667H74.666C68.884,384,64,379.115,64,373.333V176h373.334c5.781,0,10.666,4.885,10.666,10.667
	V373.333z"/>
</svg>
