<?xml version="1.0" encoding="utf-8"?>
<!-- Generator: Adobe Illustrator 16.2.1, SVG Export Plug-In . SVG Version: 6.00 Build 0)  -->
<!DOCTYPE svg PUBLIC "-//W3C//DTD SVG 1.1//EN" "http://www.w3.org/Graphics/SVG/1.1/DTD/svg11.dtd">
<svg version="1.1" xmlns="http://www.w3.org/2000/svg" x="0px" y="0px"
	 width="512px" height="512px" viewBox="0 0 512 512" enable-background="new 0 0 512 512">
<g>
	<g>
		<path d="M383.822,344.427c-16.045,0-31.024,5.326-41.721,15.979l-152.957-88.42c1.071-5.328,2.142-9.593,2.142-14.919
			c0-5.328-1.071-9.593-2.142-14.919l150.826-87.35c11.762,10.653,26.741,17.041,43.852,17.041c35.295,0,64.178-28.766,64.178-63.92
			C448,72.767,419.117,44,383.822,44c-35.297,0-64.179,28.767-64.179,63.92c0,5.327,1.065,9.593,2.142,14.919l-150.821,87.35
			c-11.767-10.654-26.741-17.041-43.856-17.041c-35.296,0-63.108,28.766-63.108,63.92c0,35.153,28.877,63.92,64.178,63.92
			c17.115,0,32.089-6.389,43.856-17.042l151.891,88.421c-1.076,4.255-2.141,8.521-2.141,13.847
			c0,34.094,27.806,61.787,62.037,61.787c34.229,0,62.036-27.693,62.036-61.787C445.858,372.12,418.052,344.427,383.822,344.427z"/>
	</g>
</g>
</svg>
