<?xml version="1.0" encoding="utf-8"?>
<!-- Generator: Adobe Illustrator 16.2.1, SVG Export Plug-In . SVG Version: 6.00 Build 0)  -->
<!DOCTYPE svg PUBLIC "-//W3C//DTD SVG 1.1//EN" "http://www.w3.org/Graphics/SVG/1.1/DTD/svg11.dtd">
<svg version="1.1" xmlns="http://www.w3.org/2000/svg" x="0px" y="0px"
	 width="512px" height="512px" viewBox="0 0 512 512" enable-background="new 0 0 512 512">
<g>
	<path d="M256,448l-30.164-27.211C118.718,322.442,48,258.61,48,179.095C48,114.221,97.918,64,162.4,64
		c36.399,0,70.717,16.742,93.6,43.947C278.882,80.742,313.199,64,349.6,64C414.082,64,464,114.221,464,179.095
		c0,79.516-70.719,143.348-177.836,241.694L256,448z"/>
</g>
</svg>
