<?xml version="1.0" encoding="utf-8"?>
<!-- Generator: Adobe Illustrator 16.2.1, SVG Export Plug-In . SVG Version: 6.00 Build 0)  -->
<!DOCTYPE svg PUBLIC "-//W3C//DTD SVG 1.1//EN" "http://www.w3.org/Graphics/SVG/1.1/DTD/svg11.dtd">
<svg version="1.1" xmlns="http://www.w3.org/2000/svg" x="0px" y="0px"
	 width="512px" height="512px" viewBox="0 0 512 512" enable-background="new 0 0 512 512">
<path d="M450.679,273.5c-14.585-14.577-36.054-15.89-50.639-1.312l-41.687,41.664c-10.852,10.836-23.93,10.859-31.564,1.852
	c-5.057-5.968-3.061-24.374-1.644-36.049l20.907-171.849c1.867-15.353-9.07-30.185-24.43-32.051
	c-15.358-1.867-29.322,9.939-31.191,25.289L267.37,236.021c-1.205,3.358-3.79,3.938-4.081-0.582L255.44,60
	c0-15.465-12.542-28-28.014-28c-15.473,0-28.015,12.535-28.015,28l-0.552,176.752c0.146,2.04-1.604,2.624-1.92,0.294L172.016,99.077
	c-2.75-15.219-17.323-26.203-32.548-23.453c-15.227,2.748-25.339,18.187-22.591,33.403l22.193,161.455
	c0.023,2.872-0.941,4.513-2.308,0.831l-33.109-88.517c-5.18-14.572-21.196-23.065-35.776-17.889
	c-14.579,5.177-22.201,22.061-17.023,36.631l58.042,189.625c0.303,1.046,0.624,2.085,0.953,3.118l0.121,0.39
	c0.011,0.031,0.025,0.058,0.035,0.088C126.079,444.233,172.57,480,227.427,480c35.116,0,71.591-12.378,99.357-33.672
	c0.001,0,0.003-0.002,0.003-0.002c29.99-18.051,126.071-121.347,126.071-121.347C467.445,310.402,465.266,288.08,450.679,273.5z"/>
</svg>
