<?xml version="1.0" encoding="utf-8"?>
<!-- Generator: Adobe Illustrator 16.2.1, SVG Export Plug-In . SVG Version: 6.00 Build 0)  -->
<!DOCTYPE svg PUBLIC "-//W3C//DTD SVG 1.1//EN" "http://www.w3.org/Graphics/SVG/1.1/DTD/svg11.dtd">
<svg version="1.1" xmlns="http://www.w3.org/2000/svg" x="0px" y="0px"
	 width="512px" height="512px" viewBox="0 0 512 512" enable-background="new 0 0 512 512">
<g>
	<g>
		<g>
			<path d="M403.001,217.001C388.997,148.002,328.998,96,256,96c-57.998,0-107.999,32.998-132.997,81
				C63.002,183.002,16,233.998,16,296c0,65.996,54.004,120,120,120h260c55,0,100-45,100-100.001
				C496,263.002,455.003,220,403.001,217.001z M396,376H136c-44.004,0-80-35.996-80-80c0-44,35.996-80,80-80h14.004
				c12.998-46,55-80,105.996-80c60.996,0,110,49,110,110v10h30c32.998,0,60,27.003,60,60C456,348.998,428.998,376,396,376z"/>
		</g>
	</g>
</g>
</svg>
