<?xml version="1.0" encoding="utf-8"?>
<!-- Generator: Adobe Illustrator 16.2.1, SVG Export Plug-In . SVG Version: 6.00 Build 0)  -->
<!DOCTYPE svg PUBLIC "-//W3C//DTD SVG 1.1//EN" "http://www.w3.org/Graphics/SVG/1.1/DTD/svg11.dtd">
<svg version="1.1" xmlns="http://www.w3.org/2000/svg" x="0px" y="0px"
	 width="512px" height="512px" viewBox="0 0 512 512" enable-background="new 0 0 512 512">
<g>
	<rect x="352" y="432" width="64" height="48"/>
	<polygon points="416,352 416,96 176,96 176,160 352,160 352,352 160,352 160,32 96,32 96,96 32,96 32,160 96,160 96,416 480,416
		480,352"/>
</g>
</svg>
