<?xml version="1.0" encoding="utf-8"?>
<!-- Generator: Adobe Illustrator 16.2.1, SVG Export Plug-In . SVG Version: 6.00 Build 0)  -->
<!DOCTYPE svg PUBLIC "-//W3C//DTD SVG 1.1//EN" "http://www.w3.org/Graphics/SVG/1.1/DTD/svg11.dtd">
<svg version="1.1" xmlns="http://www.w3.org/2000/svg" x="0px" y="0px"
	 width="512px" height="512px" viewBox="0 0 512 512" enable-background="new 0 0 512 512">
<g>
	
		<rect x="178.846" y="92.087" transform="matrix(-0.7071 -0.7071 0.7071 -0.7071 224.3476 631.1498)" width="128.085" height="354.049"/>
	<path d="M471.723,88.393l-48.115-48.114c-11.723-11.724-31.558-10.896-44.304,1.85l-45.202,45.203l90.569,90.568l45.202-45.202
		C482.616,119.952,483.445,100.116,471.723,88.393z"/>
	<polygon points="64.021,363.252 32,480 148.737,447.979"/>
</g>
</svg>
