<?xml version="1.0" encoding="utf-8"?>
<!-- Generator: Adobe Illustrator 16.2.1, SVG Export Plug-In . SVG Version: 6.00 Build 0)  -->
<!DOCTYPE svg PUBLIC "-//W3C//DTD SVG 1.1//EN" "http://www.w3.org/Graphics/SVG/1.1/DTD/svg11.dtd">
<svg version="1.1" xmlns="http://www.w3.org/2000/svg" x="0px" y="0px"
	 width="512px" height="512px" viewBox="0 0 512 512" style="enable-background:new 0 0 512 512;">
<g>
	<path d="M480,253C478.3,129.3,376.7,30.4,253,32S30.4,135.3,32,259c1.7,123.7,103.3,222.6,227,221C382.7,478.3,481.7,376.7,480,253
		z M256,111.9c17.7,0,32,14.3,32,32s-14.3,32-32,32c-17.7,0-32-14.3-32-32S238.3,111.9,256,111.9z M300,395h-88v-11h22V224h-22v-12
		h66v172h22V395z"/>
</g>
</svg>
