<?xml version="1.0" encoding="utf-8"?>
<!-- Generator: Adobe Illustrator 16.2.1, SVG Export Plug-In . SVG Version: 6.00 Build 0)  -->
<!DOCTYPE svg PUBLIC "-//W3C//DTD SVG 1.1//EN" "http://www.w3.org/Graphics/SVG/1.1/DTD/svg11.dtd">
<svg version="1.1" xmlns="http://www.w3.org/2000/svg" x="0px" y="0px"
	 width="512px" height="512px" viewBox="0 0 512 512" style="enable-background:new 0 0 512 512;">
<g>
	<path d="M64,400h10.3l19.2-31.2c20.5-32.7,44.9-62.8,75.8-76.6c24.4-10.9,46.7-18.9,86.7-20V352l192-128L256,96v80.3
		c-63,2.8-108.1,20.7-143.3,56.2c-52.3,52.7-48.7,119-48.7,135.7C64.1,377.1,64,389.9,64,400z"/>
</g>
</svg>
