<?xml version="1.0" encoding="utf-8"?>
<!-- Generator: Adobe Illustrator 16.2.1, SVG Export Plug-In . SVG Version: 6.00 Build 0)  -->
<!DOCTYPE svg PUBLIC "-//W3C//DTD SVG 1.1//EN" "http://www.w3.org/Graphics/SVG/1.1/DTD/svg11.dtd">
<svg version="1.1" xmlns="http://www.w3.org/2000/svg" x="0px" y="0px"
	 width="512px" height="512px" viewBox="0 0 512 512" style="enable-background:new 0 0 512 512;">
<g>
	<path d="M223.9,329.7c-2.4,2.4-5.8,4.4-8.8,4.4s-6.4-2.1-8.9-4.5l-56-56l17.8-17.8l47.2,47.2l124.8-125.7l17.5,18.1L223.9,329.7z"
		/>
</g>
</svg>
