<?xml version="1.0" encoding="utf-8"?>
<!-- Generator: Adobe Illustrator 16.2.1, SVG Export Plug-In . SVG Version: 6.00 Build 0)  -->
<!DOCTYPE svg PUBLIC "-//W3C//DTD SVG 1.1//EN" "http://www.w3.org/Graphics/SVG/1.1/DTD/svg11.dtd">
<svg version="1.1" xmlns="http://www.w3.org/2000/svg" x="0px" y="0px"
	 width="512px" height="512px" viewBox="0 0 512 512" style="enable-background:new 0 0 512 512;">
<g>
	<path d="M260.3,366c-9.4,0-17-7.5-17-16.9c0-9.3,7.6-16.8,17-16.8c9.4,0,17,7.5,17,16.8C277.3,358.5,269.7,366,260.3,366z
		 M294.1,250.7c-22.8,22.5-22.2,27.4-23.3,53.3h-19c1.1-28.5,7.5-43.7,30.1-64.5c11-10.3,19.4-22.7,19.4-38.1
		c0-23.6-19.4-39.9-42.6-39.9c-32.4,0-48.5,16.4-47.9,46.4H192c0.3-42,24.4-62.1,67.6-62.1c33,0,60.4,20.4,60.4,54.6
		C320,222.3,309.3,236.6,294.1,250.7z"/>
</g>
</svg>
