<?xml version="1.0" encoding="utf-8"?>
<!-- Generator: Adobe Illustrator 16.2.1, SVG Export Plug-In . SVG Version: 6.00 Build 0)  -->
<!DOCTYPE svg PUBLIC "-//W3C//DTD SVG 1.1//EN" "http://www.w3.org/Graphics/SVG/1.1/DTD/svg11.dtd">
<svg version="1.1" xmlns="http://www.w3.org/2000/svg" x="0px" y="0px"
	 width="512px" height="512px" viewBox="0 0 512 512" style="enable-background:new 0 0 512 512;">
<path d="M415.9,335.5c-14.6-15-56.1-43.1-83.3-43.1c-6.3,0-11.8,1.4-16.3,4.3c-13.3,8.5-23.9,15.1-29,15.1c-2.8,0-5.8-2.5-12.4-8.2
	l-1.1-1c-18.3-15.9-22.2-20-29.3-27.4l-1.8-1.9c-1.3-1.3-2.4-2.5-3.5-3.6c-6.2-6.4-10.7-11-26.6-29l-0.7-0.8
	c-7.6-8.6-12.6-14.2-12.9-18.3c-0.3-4,3.2-10.5,12.1-22.6c10.8-14.6,11.2-32.6,1.3-53.5c-7.9-16.5-20.8-32.3-32.2-46.2l-1-1.2
	c-9.8-12-21.2-18-33.9-18c-14.1,0-25.8,7.6-32,11.6c-0.5,0.3-1,0.7-1.5,1c-13.9,8.8-24,20.9-27.8,33.2c-5.7,18.5-9.5,42.5,17.8,92.4
	c23.6,43.2,45,72.2,79,107.1c32,32.8,46.2,43.4,78,66.4c35.4,25.6,69.4,40.3,93.2,40.3c22.1,0,39.5,0,64.3-29.9
	C442.3,370.8,431.5,351.6,415.9,335.5z M404.4,391.4c-20,24.2-31.5,24.2-52.3,24.2c-20.3,0-51.8-14-84.2-37.3
	c-31-22.4-44.8-32.7-75.9-64.6c-32.9-33.7-53.6-61.8-76.4-103.5c-24.1-44.1-21.4-63.4-16.5-79.3c2.6-8.5,10.4-17.6,21-24.2
	c0.5-0.3,1-0.7,1.6-1c5.3-3.4,14.1-9.1,23.7-9.1c8,0,15.1,4,21.9,12.3l1,1.2c25.5,31.2,45.4,58.8,30.4,79.2
	c-10.6,14.3-16.2,24-15.3,34c0.8,9.7,7.3,17,17.1,28l0.7,0.8c16.1,18.2,20.7,23,27.1,29.5c1.1,1.1,2.2,2.3,3.5,3.6l1.8,1.9
	c7.4,7.7,11.5,11.9,30.3,28.4l1.1,1c8,7,13.9,12.1,22.5,12.1c8.9,0,18.7-5.6,37.3-17.5c1.9-1.2,4.6-1.9,8-1.9
	c21.7,0,59.1,24.8,72.2,38.3C417,359.7,423,368.9,404.4,391.4z"/>
</svg>
