<?xml version="1.0" encoding="utf-8"?>
<!-- Generator: Adobe Illustrator 16.2.1, SVG Export Plug-In . SVG Version: 6.00 Build 0)  -->
<!DOCTYPE svg PUBLIC "-//W3C//DTD SVG 1.1//EN" "http://www.w3.org/Graphics/SVG/1.1/DTD/svg11.dtd">
<svg version="1.1" xmlns="http://www.w3.org/2000/svg" x="0px" y="0px"
	 width="512px" height="512px" viewBox="0 0 512 512" enable-background="new 0 0 512 512">
<g>
	<rect x="128" y="64" width="32" height="48"/>
	<polygon points="160,352 160,176 128,176 128,384 336,384 336,352"/>
	<rect x="400" y="352" width="48" height="32"/>
	<polygon points="64,128 64,160 352,160 352,448 384,448 384,128"/>
</g>
</svg>
