<?xml version="1.0" encoding="utf-8"?>
<!-- Generator: Adobe Illustrator 16.2.1, SVG Export Plug-In . SVG Version: 6.00 Build 0)  -->
<!DOCTYPE svg PUBLIC "-//W3C//DTD SVG 1.1//EN" "http://www.w3.org/Graphics/SVG/1.1/DTD/svg11.dtd">
<svg version="1.1" xmlns="http://www.w3.org/2000/svg" x="0px" y="0px"
	 width="512px" height="512px" viewBox="0 0 512 512" enable-background="new 0 0 512 512">
<g>
	<rect x="128" y="224" width="256" height="224"/>
</g>
<g>
	<rect x="127.5" y="224.5" width="256" height="224"/>
	<g>
		<rect x="111.5" y="64.5" width="288" height="32"/>
		<path d="M432.5,112.5h-352c-17.645,0-33,12.842-33,30.309v158.393c0,17.468,15.355,33.299,33,33.299h31v-126h288v126h33
			c17.645,0,31-15.831,31-33.299V142.809C463.5,125.342,450.145,112.5,432.5,112.5z"/>
	</g>
</g>
</svg>
