<?xml version="1.0" encoding="utf-8"?>
<!-- Generator: Adobe Illustrator 16.2.1, SVG Export Plug-In . SVG Version: 6.00 Build 0)  -->
<!DOCTYPE svg PUBLIC "-//W3C//DTD SVG 1.1//EN" "http://www.w3.org/Graphics/SVG/1.1/DTD/svg11.dtd">
<svg version="1.1" xmlns="http://www.w3.org/2000/svg" x="0px" y="0px"
	 width="512px" height="512px" viewBox="0 0 512 512" style="enable-background:new 0 0 512 512;">
<g>
	<path d="M364.4,320.9c-5.3,7.5-11.6,14.7-18.8,21.4c-7.1,6.6-15.1,12.5-23.7,17.4c-8.6,4.9-17.9,8.8-27.5,11.5s-19.8,4.1-30.3,4.1
		c-15.9,0-31.2-2.6-45.5-7.6c-14.2-5-26.8-12.5-37.5-22.4c-10.7-9.8-21.7-25.9-28.2-41c-5.8-13.4-8.1-27.8-8.1-49.5
		c0-15.6,3.6-33,9.8-47.6c6-14,14.3-26.4,24.9-36.9c10.4-10.3,23-18.6,37.6-24.8c13.1-5.5,28.5-8.2,47.1-8.2c14.9,0,29,2.4,41.9,7
		c12.8,4.6,23.9,11.2,33.1,19.6c8.7,7.9,14,17.4,19.7,30.2c5,11.2,6.8,20.9,6.8,35.9c0,12.4-2.2,24.1-6.5,34.9
		c-4.3,10.6-7.5,17-14,25c-6.6,7.9-10.6,12.7-18.1,17.1c-8.6,5-15.3,7.4-21,7.4c-3.6,0-6.3-0.7-7.8-2c-1.5-1.3-2.4-3-2.7-5.4
		c-0.4-2.8-0.1-6.3,1-10.4c1.1-4.4,2.8-8.6,4.9-13.7L339.4,181h-17.8l-6.2,16.5c-3.8-6.1-9.1-11.5-15.9-15.5
		c-10.5-6.1-19.5-8.8-31.2-8.8c-13.5,0-26,3.5-37.2,10.4c-11,6.8-20.5,15.6-28.2,26.3c-7.5,10.3-9.3,15.7-12.9,26.4l-0.6,1.7
		c-4.2,12.4-6.3,24.6-6.3,36.2c0,7.7,1.4,15,4.1,21.8c2.7,6.8,6.4,12.8,11.1,17.8c4.7,5.1,10.4,9.1,16.9,12.1s13.7,4.5,21.3,4.5
		c8.5,0,16.6-1.4,26.1-4.7c6.3-2.2,11.9-5.8,17.4-11.4c1,3.2,2.7,6,5.3,8.5c5,5,11.7,7.6,19.9,7.6c8.6,0,17.8-3,29-9.3
		c9.9-5.6,15.7-12,23.3-21.1c8.2-9.8,12.3-18,16.9-29.7c5-12.5,7.5-26,7.5-40.3c0-18-2.4-30.2-8.5-43.6c-6.6-14.3-13.2-25.8-24-35.4
		c-10.9-9.6-23.9-17.1-38.5-22.3c-14.5-5.1-30.3-7.7-46.7-7.7c-20.1,0-37.2,3-52.2,9.1c-16.5,6.7-30.9,16-43,27.6
		c-12.2,11.8-22,25.9-29,41.9c-7.3,16.6-11.4,36.7-11.4,55.1c0,25.1,3.1,42.6,10.3,58.4c8,17.3,21,35.4,33.3,46
		c12.6,10.9,27.1,19.1,43.2,24.2c15.9,5.1,32.3,7.7,48.8,7.7c11.4,0,22.8-1.6,34-4.6c11.2-3.1,22-7.4,32.1-13.1
		c10.1-5.6,19.5-12.5,28.2-20.6c8.6-8.1,18.6-20.8,22-26.9c1.3-2.4,2.2-4.3,2.9-5.8h-18.5L364.4,320.9z M275.8,294.4
		c-4.4,5.6-7.7,9.5-11.8,12.2c-4.4,3-7.9,4.9-12.4,5.9c-4.6,1.2-9.3,1.7-13.7,1.7c-5.6,0-10.8-1-15.4-3c-4.7-2-8.7-4.8-12.1-8.4
		c-3.4-3.6-6.1-7.9-8.1-12.7c-1.9-4.8-2.9-10.2-2.9-16c0-9.5,1.8-19.7,5.3-30.3c0.4-1.2,0.8-2.4,1.1-3.4c2.8-8.6,4.3-11.5,9.5-20
		c5.7-9.4,14.1-16.6,23-22.5c8.6-5.8,18.2-8.7,28.5-8.7c4.2,0,8.6,0.5,13.2,1.5c3.6,0.8,5.6,1.9,9,3.9c0.6,0.3,1.1,0.6,1.7,1
		c3.9,2.2,7.4,5.1,10.4,8.7c2.7,3.2,4.8,7.4,6.3,12.3l-20.6,57.8C283.6,282.5,279.9,289.2,275.8,294.4z"/>
</g>
</svg>
