<?xml version="1.0" encoding="utf-8"?>
<!-- Generator: Adobe Illustrator 16.2.1, SVG Export Plug-In . SVG Version: 6.00 Build 0)  -->
<!DOCTYPE svg PUBLIC "-//W3C//DTD SVG 1.1//EN" "http://www.w3.org/Graphics/SVG/1.1/DTD/svg11.dtd">
<svg version="1.1" xmlns="http://www.w3.org/2000/svg" x="0px" y="0px"
	 width="512px" height="512px" viewBox="0 0 512 512" style="enable-background:new 0 0 512 512;">
<path d="M256,112c97,0,176,62,176,138.3c0,35.9-17.6,69.2-49.5,93.9c-32.8,25.4-77.4,39.3-125.5,39.3c-28.9,0-51-3-69.7-9.3
	c-0.6-0.2-1.3-0.5-2-0.7c-0.3-0.1-0.6-0.2-0.8-0.2c-4.7-1.4-9.7-2.1-14.7-2.1c-5.6,0-11.1,0.9-16.3,2.6l0,0l-0.3,0.1
	c-0.6,0.2-8.9,3.3-11,4.3l0,0l-39.6,17.2c13.8-43.9,13.8-44.8,13.8-47.6c0-7.1-2.2-14.1-6.3-20.2c-0.5-0.7-1-1.4-1.6-2.1
	c-0.7-0.9-1.3-1.7-1.8-2.3c-17.4-21.9-26.6-47.1-26.6-73C80,174,159,112,256,112 M256,96C149.9,96,64,165.1,64,250.3
	c0,30.7,11.2,59.3,30.4,83.3c0.9,0.9,2.9,3.8,3.6,4.9c0,0-1-1.6-1.1-1.9c0,0,0,0,0,0l0,0c0,0,0,0,0,0c2.3,3.3,3.6,7.1,3.6,11.2
	c0,1.4-17.9,58-17.9,58l0,0c-1.3,4.4,2.1,8.9,7.6,10c0.8,0.2,1.6,0.2,2.4,0.2c1.3,0,2.5-0.2,3.7-0.5l1.6-0.6l50.6-22
	c0.9-0.4,9-3.5,10-3.9c0,0,0.6-0.2,0.6-0.2c0,0-0.1,0-0.6,0.2c3.4-1.2,7.2-1.8,11.2-1.8c3.6,0,7.1,0.5,10.3,1.5c0.1,0,0.2,0,0.2,0.1
	c0.5,0.2,1,0.3,1.5,0.5c23.1,7.9,48.4,10.3,75.1,10.3c106,0,191-64.1,191-149.3C448,165.1,362,96,256,96L256,96z"/>
</svg>
