<?xml version="1.0" encoding="utf-8"?>
<!-- Generator: Adobe Illustrator 16.2.1, SVG Export Plug-In . SVG Version: 6.00 Build 0)  -->
<!DOCTYPE svg PUBLIC "-//W3C//DTD SVG 1.1//EN" "http://www.w3.org/Graphics/SVG/1.1/DTD/svg11.dtd">
<svg version="1.1" xmlns="http://www.w3.org/2000/svg" x="0px" y="0px"
	 width="512px" height="512px" viewBox="0 0 512 512" enable-background="new 0 0 512 512">
<g>
	<g>
		<path d="M432,80v352H80V80H432 M448,64H64v384h384V64L448,64z"/>
		<g>
			<rect x="192" y="152" width="192" height="16"/>
		</g>
		<g>
			<rect x="192" y="248" width="192" height="16"/>
		</g>
		<g>
			<rect x="192" y="344" width="192" height="16"/>
		</g>
	</g>
	<circle cx="144" cy="160" r="16"/>
	<circle cx="144" cy="256" r="16"/>
	<circle cx="144" cy="352" r="16"/>
</g>
</svg>
