<?xml version="1.0" encoding="utf-8"?>
<!-- Generator: Adobe Illustrator 16.2.1, SVG Export Plug-In . SVG Version: 6.00 Build 0)  -->
<!DOCTYPE svg PUBLIC "-//W3C//DTD SVG 1.1//EN" "http://www.w3.org/Graphics/SVG/1.1/DTD/svg11.dtd">
<svg version="1.1" xmlns="http://www.w3.org/2000/svg" x="0px" y="0px"
	 width="512px" height="512px" viewBox="0 0 512 512" style="enable-background:new 0 0 512 512;">
<g>
	<polygon points="264,144 264,307 318.8,252.3 330.4,263.9 256,338.4 181.5,263.9 193.2,252.3 248,307 248,144 96,144 96,448
		416,448 416,144"/>
	<rect x="248" y="64" width="16" height="80"/>
</g>
</svg>
