<?xml version="1.0" encoding="utf-8"?>
<!-- Generator: Adobe Illustrator 16.2.1, SVG Export Plug-In . SVG Version: 6.00 Build 0)  -->
<!DOCTYPE svg PUBLIC "-//W3C//DTD SVG 1.1//EN" "http://www.w3.org/Graphics/SVG/1.1/DTD/svg11.dtd">
<svg version="1.1" xmlns="http://www.w3.org/2000/svg" x="0px" y="0px"
	 width="512px" height="512px" viewBox="0 0 512 512" style="enable-background:new 0 0 512 512;">
<g>
	<g>
		<path d="M400,172.9C400,95.1,333.9,32,256,32c-77.9,0-144,63.1-144,141c0,31,13.2,59,30.2,83h-0.3c10.9,15,21.4,27.7,31.5,45
			c22,37.8,18.6,74.3,18.7,81.6v1.4h32V256l-32-64h16.6l31.4,64v128h32V256l31.4-64H320l-32,64v128h32v-1.4
			c0-8.9-3.6-43.8,18.4-81.6c10.1-17.3,20.6-30,31.5-45h-0.1C386.8,232,400,204,400,172.9z"/>
	</g>
	<rect x="224" y="464" width="64" height="16"/>
	<rect x="208" y="432" width="96" height="16"/>
	<rect x="208" y="400" width="96" height="16"/>
</g>
</svg>
