<?xml version="1.0" encoding="utf-8"?>
<!-- Generator: Adobe Illustrator 16.2.1, SVG Export Plug-In . SVG Version: 6.00 Build 0)  -->
<!DOCTYPE svg PUBLIC "-//W3C//DTD SVG 1.1//EN" "http://www.w3.org/Graphics/SVG/1.1/DTD/svg11.dtd">
<svg version="1.1" xmlns="http://www.w3.org/2000/svg" x="0px" y="0px"
	 width="512px" height="512px" viewBox="0 0 512 512" enable-background="new 0 0 512 512">
<path d="M223.899,32c25.691,145-96.732,142-95.895,288c0.686,119.51,104.975,160,128.143,160c23.166,0,113.88-26,126.931-160
	C393.711,210.816,310.572,96,223.899,32z M256.147,472c0,0-40.701-35.816-40.701-80c0-44.183,40.555-80,40.555-80
	s40.332,35.817,40.332,80C296.332,436.184,256.147,472,256.147,472z M367.153,318.449c-2.823,28.988-9.704,54.523-20.45,75.894
	c-8.749,17.397-20.084,32.114-33.692,43.743c-6.522,5.575-13.255,10.115-19.771,13.749c10.039-15.938,19.093-36.72,19.093-59.835
	c0-50.788-43.842-90.307-45.708-91.963l-10.594-9.41l-10.621,9.381c-1.877,1.657-45.963,41.178-45.963,91.992
	c0,21.842,8.168,41.594,17.636,57.152c-7.381-4.326-15.215-9.748-22.986-16.451c-14.688-12.67-26.365-27.608-34.708-44.402
	c-10.063-20.255-15.239-43.265-15.383-68.391c-0.367-63.986,24.09-95.746,49.983-129.369c24.568-31.903,49.829-64.7,49.458-122.113
	c32.513,28.827,61.257,63.03,82.822,98.877C357.576,219.35,371.715,271.615,367.153,318.449z"/>
</svg>
