<?xml version="1.0" encoding="utf-8"?>
<!-- Generator: Adobe Illustrator 16.2.1, SVG Export Plug-In . SVG Version: 6.00 Build 0)  -->
<!DOCTYPE svg PUBLIC "-//W3C//DTD SVG 1.1//EN" "http://www.w3.org/Graphics/SVG/1.1/DTD/svg11.dtd">
<svg version="1.1" xmlns="http://www.w3.org/2000/svg" x="0px" y="0px"
	 width="512px" height="512px" viewBox="0 0 512 512" enable-background="new 0 0 512 512">
<g>
	<path d="M272,64v224L74.245,337.376C101.653,420.221,179.841,480,271.875,480C386.75,480,480,386.875,480,272S387,64,272,64L272,64
		z"/>
	<path d="M256,32h-5.5C90.5,32,32,148.25,32,239.287c0,0,0.25,56.666,18.91,88.291L256,275.573V32L256,32z"/>
</g>
</svg>
