<?xml version="1.0" encoding="utf-8"?>
<!-- Generator: Adobe Illustrator 16.2.1, SVG Export Plug-In . SVG Version: 6.00 Build 0)  -->
<!DOCTYPE svg PUBLIC "-//W3C//DTD SVG 1.1//EN" "http://www.w3.org/Graphics/SVG/1.1/DTD/svg11.dtd">
<svg version="1.1" xmlns="http://www.w3.org/2000/svg" x="0px" y="0px"
	 width="512px" height="512px" viewBox="0 0 512 512" style="enable-background:new 0 0 512 512;">
<g>
	<path d="M113.7,304C86.2,304,64,282.6,64,256c0-26.5,22.2-48,49.7-48c27.6,0,49.8,21.5,49.8,48C163.5,282.6,141.3,304,113.7,304z"
		/>
	<path d="M256,304c-27.5,0-49.8-21.4-49.8-48c0-26.5,22.3-48,49.8-48c27.5,0,49.7,21.5,49.7,48C305.7,282.6,283.5,304,256,304z"/>
	<path d="M398.2,304c-27.5,0-49.8-21.4-49.8-48c0-26.5,22.2-48,49.8-48c27.5,0,49.8,21.5,49.8,48C448,282.6,425.8,304,398.2,304z"/>
</g>
</svg>
