<?xml version="1.0" encoding="utf-8"?>
<!-- Generator: Adobe Illustrator 16.2.1, SVG Export Plug-In . SVG Version: 6.00 Build 0)  -->
<!DOCTYPE svg PUBLIC "-//W3C//DTD SVG 1.1//EN" "http://www.w3.org/Graphics/SVG/1.1/DTD/svg11.dtd">
<svg version="1.1" xmlns="http://www.w3.org/2000/svg" x="0px" y="0px"
	 width="512px" height="512px" viewBox="0 0 512 512" style="enable-background:new 0 0 512 512;">
<path d="M256,32C132.3,32,32,132.3,32,256c0,123.7,100.3,224,224,224c123.7,0,224-100.3,224-224C480,132.3,379.7,32,256,32z
	 M391.8,391.8c-32.5,32.5-74.6,51.9-119.8,55.6L264,384h-16l-7.9,63.3c-45.3-3.7-87.4-23.1-119.8-55.6
	c-32.5-32.5-51.9-74.6-55.6-119.8L128,264v-16l-63.3-7.9c3.7-45.3,23.1-87.4,55.6-119.8c32.5-32.5,74.6-51.9,119.8-55.6L248,128h16
	l7.9-63.3c45.3,3.7,87.4,23.1,119.8,55.6c32.5,32.5,51.9,74.6,55.6,119.8L384,248v16l63.3,7.9C443.6,317.2,424.2,359.3,391.8,391.8z
	"/>
</svg>
