<?xml version="1.0" encoding="utf-8"?>
<!-- Generator: Adobe Illustrator 16.2.1, SVG Export Plug-In . SVG Version: 6.00 Build 0)  -->
<!DOCTYPE svg PUBLIC "-//W3C//DTD SVG 1.1//EN" "http://www.w3.org/Graphics/SVG/1.1/DTD/svg11.dtd">
<svg version="1.1" xmlns="http://www.w3.org/2000/svg" x="0px" y="0px"
	 width="512px" height="512px" viewBox="0 0 512 512" style="enable-background:new 0 0 512 512;">
<path d="M405.2,232.9L126.8,67.2c-3.4-2-6.9-3.2-10.9-3.2c-10.9,0-19.8,9-19.8,20H96v344h0.1c0,11,8.9,20,19.8,20
	c4.1,0,7.5-1.4,11.2-3.4l278.1-165.5c6.6-5.5,10.8-13.8,10.8-23.1C416,246.7,411.8,238.5,405.2,232.9z"/>
</svg>
