<?xml version="1.0" encoding="utf-8"?>
<!-- Generator: Adobe Illustrator 16.2.1, SVG Export Plug-In . SVG Version: 6.00 Build 0)  -->
<!DOCTYPE svg PUBLIC "-//W3C//DTD SVG 1.1//EN" "http://www.w3.org/Graphics/SVG/1.1/DTD/svg11.dtd">
<svg version="1.1" xmlns="http://www.w3.org/2000/svg" x="0px" y="0px"
	 width="512px" height="512px" viewBox="0 0 512 512" enable-background="new 0 0 512 512">
<g>
	<path d="M256,32C132.288,32,32,132.288,32,256s100.288,224,224,224s224-100.288,224-224S379.712,32,256,32z M145.062,291.696
		c-1.551,4.952-5.62,8.724-10.693,10.606c-3.358,1.246-6.816,1.774-10.236,0.938c-8.866-2.185-13.916-10.907-11.255-19.443
		c5.101-16.379,14.22-29.995,33.802-37.263s35.265-2.877,49.868,6.15c7.615,4.707,10.029,14.019,4.214,22.123
		c-2.049,2.854-5.019,4.717-8.376,5.963c-5.059,1.876-10.584,1.678-14.965-1.036c-4.778-2.957-10.643-6.526-19.607-3.199
		C148.805,279.878,146.712,286.374,145.062,291.696z M345.156,381.454c-2.789,1.946-5.982,2.881-9.144,2.881
		c-5.053,0-10.023-2.388-13.134-6.845C322.703,377.239,304,352,256,352c-47.98,0-66.704,25.239-66.879,25.49
		c-3.111,4.457-8.083,6.845-13.135,6.845c-3.161,0-6.354-0.935-9.143-2.881c-7.246-5.058-9.021-15.031-3.963-22.278
		C163.986,357.59,190.739,320,256,320c65,0,92.013,37.59,93.119,39.176C354.177,366.423,352.402,376.396,345.156,381.454z
		 M388.029,303.24c-3.42,0.837-6.879,0.309-10.236-0.938c-5.073-1.883-9.143-5.654-10.693-10.606
		c-1.649-5.322-3.742-11.818-12.752-15.161c-8.964-3.327-14.829,0.242-19.607,3.199c-4.381,2.714-9.906,2.912-14.965,1.036
		c-3.357-1.246-6.327-3.108-8.376-5.963c-5.815-8.104-3.401-17.416,4.214-22.123c14.604-9.027,30.286-13.418,49.868-6.15
		s28.702,20.884,33.802,37.263C401.944,292.333,396.895,301.056,388.029,303.24z"/>
</g>
</svg>
