<?xml version="1.0" encoding="utf-8"?>
<!-- Generator: Adobe Illustrator 16.2.1, SVG Export Plug-In . SVG Version: 6.00 Build 0)  -->
<!DOCTYPE svg PUBLIC "-//W3C//DTD SVG 1.1//EN" "http://www.w3.org/Graphics/SVG/1.1/DTD/svg11.dtd">
<svg version="1.1" xmlns="http://www.w3.org/2000/svg" x="0px" y="0px"
	 width="512px" height="512px" viewBox="0 0 512 512" style="enable-background:new 0 0 512 512;">
<g>
	<g>
		<path d="M70.7,164.5l169.2,81.7c4.4,2.1,10.3,3.2,16.1,3.2s11.7-1.1,16.1-3.2l169.2-81.7c8.9-4.3,8.9-11.3,0-15.6L272.1,67.2
			c-4.4-2.1-10.3-3.2-16.1-3.2s-11.7,1.1-16.1,3.2L70.7,148.9C61.8,153.2,61.8,160.2,70.7,164.5z"/>
		<path d="M441.3,248.2c0,0-30.9-14.9-35-16.9s-5.2-1.9-9.5,0.1s-124.8,60.2-124.8,60.2c-4.5,2.1-10.3,3.2-16.1,3.2
			s-11.7-1.1-16.1-3.2c0,0-117.3-56.6-122.8-59.3c-6-2.9-7.7-2.9-13.1-0.3c-5.6,2.7-33.4,16.1-33.4,16.1c-8.9,4.3-8.9,11.3,0,15.6
			l169.2,81.7c4.4,2.1,10.3,3.2,16.1,3.2s11.7-1.1,16.1-3.2l169.2-81.7C450.2,259.5,450.2,252.5,441.3,248.2z"/>
	</g>
	<path d="M441.3,347.5c0,0-30.9-14.9-35-16.9s-5.2-1.9-9.5,0.1S272.1,391,272.1,391c-4.5,2.1-10.3,3.2-16.1,3.2s-11.7-1.1-16.1-3.2
		c0,0-117.3-56.6-122.8-59.3c-6-2.9-7.7-2.9-13.1-0.3c-5.6,2.7-33.4,16.1-33.4,16.1c-8.9,4.3-8.9,11.3,0,15.6l169.2,81.7
		c4.4,2.2,10.3,3.2,16.1,3.2s11.7-1.1,16.1-3.2l169.2-81.7C450.2,358.8,450.2,351.8,441.3,347.5z"/>
</g>
</svg>
