<?xml version="1.0" encoding="utf-8"?>
<!-- Generator: Adobe Illustrator 16.2.1, SVG Export Plug-In . SVG Version: 6.00 Build 0)  -->
<!DOCTYPE svg PUBLIC "-//W3C//DTD SVG 1.1//EN" "http://www.w3.org/Graphics/SVG/1.1/DTD/svg11.dtd">
<svg version="1.1" xmlns="http://www.w3.org/2000/svg" x="0px" y="0px"
	 width="512px" height="512px" viewBox="0 0 512 512" enable-background="new 0 0 512 512">
<g>
	<path d="M255.982,64l187.967,69.105l-39.17,230.389l-148.881,79.949l-148.812-80.051L68.031,133.11L255.982,64 M255.981,32L32,112
		l46.12,272L256,480l177.75-96L480,112L255.981,32L255.981,32z"/>
	<path d="M344,352h40L256,72L128,352h40l26.584-56h122.827L344,352z M213.573,256l42.419-89.356L298.419,256H213.573z"/>
</g>
</svg>
