<?xml version="1.0" encoding="utf-8"?>
<!-- Generator: Adobe Illustrator 16.2.1, SVG Export Plug-In . SVG Version: 6.00 Build 0)  -->
<!DOCTYPE svg PUBLIC "-//W3C//DTD SVG 1.1//EN" "http://www.w3.org/Graphics/SVG/1.1/DTD/svg11.dtd">
<svg version="1.1" xmlns="http://www.w3.org/2000/svg" x="0px" y="0px"
	 width="512px" height="512px" viewBox="0 0 512 512" style="enable-background:new 0 0 512 512;">
<g>
	<path d="M256,32C132.3,32,32,132.3,32,256c0,91.7,55.2,170.5,134.1,205.2c-0.6-15.6-0.1-34.4,3.9-51.4
		c4.3-18.2,28.8-122.1,28.8-122.1s-7.2-14.3-7.2-35.4c0-33.2,19.2-58,43.2-58c20.4,0,30.2,15.3,30.2,33.6
		c0,20.5-13.1,51.1-19.8,79.5c-5.6,23.8,11.9,43.1,35.4,43.1c42.4,0,71-54.5,71-119.1c0-49.1-33.1-85.8-93.2-85.8
		c-67.9,0-110.3,50.7-110.3,107.3c0,19.5,5.8,33.3,14.8,43.9c4.1,4.9,4.7,6.9,3.2,12.5c-1.1,4.1-3.5,14-4.6,18
		c-1.5,5.7-6.1,7.7-11.2,5.6c-31.3-12.8-45.9-47-45.9-85.6c0-63.6,53.7-139.9,160.1-139.9c85.5,0,141.8,61.9,141.8,128.3
		c0,87.9-48.9,153.5-120.9,153.5c-24.2,0-46.9-13.1-54.7-27.9c0,0-13,51.6-15.8,61.6c-4.7,17.3-14,34.5-22.5,48
		c20.1,5.9,41.4,9.2,63.5,9.2c123.7,0,224-100.3,224-224C480,132.3,379.7,32,256,32z"/>
</g>
</svg>
