<?xml version="1.0" encoding="utf-8"?>
<!-- Generator: Adobe Illustrator 16.2.1, SVG Export Plug-In . SVG Version: 6.00 Build 0)  -->
<!DOCTYPE svg PUBLIC "-//W3C//DTD SVG 1.1//EN" "http://www.w3.org/Graphics/SVG/1.1/DTD/svg11.dtd">
<svg version="1.1" xmlns="http://www.w3.org/2000/svg" x="0px" y="0px"
	 width="512px" height="512px" viewBox="0 0 512 512" style="enable-background:new 0 0 512 512;">
<g>
	<polygon points="177,77 64,150.9 142.1,213.6 256,143.1"/>
	<polygon points="64,276.3 177,350.2 256,284.1 142.1,213.6"/>
	<polygon points="256,284.1 335,350.2 448,276.3 369.9,213.6"/>
	<polygon points="448,150.9 335,77 256,143.1 369.9,213.6"/>
	<polygon points="256.2,298.3 176.4,364.3 142,342.1 142,367 256,435 370,367 370,342.1 335.8,364.3"/>
</g>
</svg>
