<?xml version="1.0" encoding="utf-8"?>
<!-- Generator: Adobe Illustrator 16.2.1, SVG Export Plug-In . SVG Version: 6.00 Build 0)  -->
<!DOCTYPE svg PUBLIC "-//W3C//DTD SVG 1.1//EN" "http://www.w3.org/Graphics/SVG/1.1/DTD/svg11.dtd">
<svg version="1.1" xmlns="http://www.w3.org/2000/svg" x="0px" y="0px"
	 width="512px" height="512px" viewBox="0 0 512 512" enable-background="new 0 0 512 512">
<g>
	<path d="M495.998,360.389l-0.189-14.501l-14.398-1.278c-15.413-1.396-43.8-7.219-54.301-16.9
		c-16.281-15.011-35.688-36.199-35.688-51.893c0-1.014,0-2.546,4.15-5.186c4.985-3.174,12.589-5.584,19.297-7.71
		c5.217-1.654,10.144-3.217,14.394-5.236c9.236-4.39,18.498-15.978,17.471-28.807c-1.215-15.166-14.424-27.046-30.072-27.046
		c-4.021,0-8.068,0.76-12.027,2.259c-8.027,3.041-13.743,4.41-17.705,4.962c0.747-9.319,1.791-20.12,3.211-30.67
		c5.111-37.948-5.281-73.509-29.264-101.042C335.498,48.208,297.376,32,256.283,32H256c-41.093,0-79.215,16.208-104.591,45.341
		c-23.982,27.534-34.375,63.345-29.265,101.292c1.416,10.51,2.46,21.231,3.21,30.618c-3.97-0.559-9.686-1.998-17.703-5.034
		c-3.965-1.502-8.017-2.295-12.043-2.295c-15.641-0.001-28.844,11.852-30.057,27.003c-1.027,12.818,8.235,24.393,17.47,28.783
		c4.251,2.02,9.181,3.578,14.4,5.232c6.707,2.125,14.309,4.532,19.293,7.703c4.147,2.639,4.147,4.168,4.147,5.182
		c0,8.66-6.191,24.691-35.688,51.888c-10.499,9.681-39.055,15.501-54.588,16.897l-14.572,1.311L16,360.603
		c0,1.679,0.312,10.546,6.485,20.319c5.246,8.306,16.073,19.283,37.863,24.407c6.179,1.453,11.186,2.563,15.208,3.454
		c2.306,0.512,4.555,1.01,6.454,1.453c0.027,0.209,0.054,0.417,0.081,0.623c0.9,7.004,1.611,12.535,4.392,17.75
		c2.453,4.6,8.574,12.316,22.015,12.316c2.478,0,5.249-0.246,8.472-0.751c1.672-0.263,3.386-0.554,5.2-0.863
		c7.116-1.212,15.182-2.587,23.451-2.587c10.277,0,18.732,2.188,25.846,6.688c4.531,2.867,8.892,5.972,13.509,9.26
		C202.967,465.481,223.358,480,256,480c32.726,0,53.293-14.582,71.439-27.446c4.576-3.244,8.898-6.309,13.377-9.142
		c7.113-4.5,15.568-6.688,25.846-6.688c8.27,0,16.334,1.375,23.449,2.586c1.814,0.311,3.529,0.602,5.202,0.864
		c3.223,0.505,5.993,0.751,8.472,0.751c13.44,0,19.562-7.715,22.015-12.313c2.781-5.214,3.492-10.746,4.392-17.749
		c0.027-0.208,0.055-0.418,0.082-0.629c1.898-0.441,4.148-0.941,6.455-1.452c4.023-0.892,9.029-2.001,15.206-3.454
		c21.851-5.139,32.611-16.17,37.79-24.518C495.822,370.982,496.021,362.074,495.998,360.389z M208,128c8.836,0,16,10.745,16,24
		s-7.164,24-16,24s-16-10.745-16-24S199.164,128,208,128z M311.615,205.698C296.368,220.725,276.617,229,256,229
		c-20.838,0-40.604-8.29-55.657-23.343c-3.125-3.124-3.124-8.189,0-11.313c3.125-3.124,8.19-3.124,11.313,0
		C223.688,206.374,239.436,213,256,213c16.387,0,32.15-6.64,44.385-18.698c3.148-3.102,8.213-3.063,11.312,0.082
		C314.799,197.531,314.762,202.597,311.615,205.698z M304,176c-8.836,0-16-10.746-16-24s7.164-24,16-24s16,10.746,16,24
		S312.836,176,304,176z"/>
</g>
</svg>
