<?xml version="1.0" encoding="utf-8"?>
<!-- Generator: Adobe Illustrator 16.2.1, SVG Export Plug-In . SVG Version: 6.00 Build 0)  -->
<!DOCTYPE svg PUBLIC "-//W3C//DTD SVG 1.1//EN" "http://www.w3.org/Graphics/SVG/1.1/DTD/svg11.dtd">
<svg version="1.1" xmlns="http://www.w3.org/2000/svg" x="0px" y="0px"
	 width="512px" height="512px" viewBox="0 0 512 512" enable-background="new 0 0 512 512">
<g>
	<path d="M352,208c-26.467,0-48,21.533-48,48c0,26.467,21.533,48,48,48s48-21.533,48-48C400,229.533,378.467,208,352,208z"/>
	<path d="M352,128H160c-70.692,0-128,57.308-128,128s57.308,128,128,128h192c70.692,0,128-57.308,128-128S422.692,128,352,128z
		 M352,336c-44.183,0-80-35.817-80-80s35.817-80,80-80s80,35.817,80,80S396.183,336,352,336z"/>
</g>
</svg>
