<?xml version="1.0" encoding="utf-8"?>
<!-- Generator: Adobe Illustrator 16.2.1, SVG Export Plug-In . SVG Version: 6.00 Build 0)  -->
<!DOCTYPE svg PUBLIC "-//W3C//DTD SVG 1.1//EN" "http://www.w3.org/Graphics/SVG/1.1/DTD/svg11.dtd">
<svg version="1.1" xmlns="http://www.w3.org/2000/svg" x="0px" y="0px"
	 width="512px" height="512px" viewBox="0 0 512 512" style="enable-background:new 0 0 512 512;">
<g>
	<polygon points="255.9,217 191,217 191,295 255.9,295 303,346.3 303,165.7"/>
	<path d="M364.5,60.1c-0.4-0.2-0.7-0.4-1.1-0.6C331.5,42,294.9,32,256,32C132.3,32,32,132.3,32,256c0,84.3,46.6,157.6,115.4,195.9
		c0.4,0.2,0.7,0.5,1.1,0.7C180.5,470,217.1,480,256,480c123.7,0,224-100.3,224-224C480,171.7,433.4,98.3,364.5,60.1z M393.9,355.4
		L336,297.1v76.7l19.6,19.9c-28,20.3-62.3,32.7-99.5,32.7c-21.6,0-42.3-4.2-61.3-11.5c-6.5-2.5-12.9-5.3-19-8.6
		c-53.6-28.7-90.1-85.2-90.1-150.3c0-37.2,12.4-71.4,32.7-99.4l35.3,35.4h76.7l-73.6-73.8c28-20.2,62.1-32.6,99.4-32.6
		c21.6,0,42.2,4.2,61.3,11.5c6.1,2.4,12.2,5,17.9,8c54.2,28.5,91.3,85.3,91.3,150.8C426.5,293.3,414.2,327.4,393.9,355.4z"/>
</g>
</svg>
